{
  "type": "mdx",
  "permalink": "/gitlab-ci-project/my-markdown-page",
  "source": "@site/src/pages/my-markdown-page.md",
  "title": "My Markdown page",
  "description": "This is a Markdown page",
  "frontMatter": {},
  "unlisted": false
}