{
  "/gitlab-ci-project/__docusaurus/debug-63d": {
    "__comp": "__comp---theme-debug-config-23-a-2ff",
    "__context": {
      "plugin": "plugin---gitlab-ci-project-docusaurus-debugcf-8-410"
    }
  },
  "/gitlab-ci-project/__docusaurus/debug/config-232": {
    "__comp": "__comp---theme-debug-config-23-a-2ff",
    "__context": {
      "plugin": "plugin---gitlab-ci-project-docusaurus-debugcf-8-410"
    }
  },
  "/gitlab-ci-project/__docusaurus/debug/content-b5b": {
    "__comp": "__comp---theme-debug-contentba-8-ce7",
    "__context": {
      "plugin": "plugin---gitlab-ci-project-docusaurus-debugcf-8-410"
    },
    "allContent": "allContent---gitlab-ci-project-docusaurus-debug-content-246-1fc"
  },
  "/gitlab-ci-project/__docusaurus/debug/globalData-48f": {
    "__comp": "__comp---theme-debug-global-dataede-0fa",
    "__context": {
      "plugin": "plugin---gitlab-ci-project-docusaurus-debugcf-8-410"
    }
  },
  "/gitlab-ci-project/__docusaurus/debug/metadata-a9f": {
    "__comp": "__comp---theme-debug-site-metadata-68-e-3d4",
    "__context": {
      "plugin": "plugin---gitlab-ci-project-docusaurus-debugcf-8-410"
    }
  },
  "/gitlab-ci-project/__docusaurus/debug/registry-45c": {
    "__comp": "__comp---theme-debug-registry-679-501",
    "__context": {
      "plugin": "plugin---gitlab-ci-project-docusaurus-debugcf-8-410"
    }
  },
  "/gitlab-ci-project/__docusaurus/debug/routes-9ce": {
    "__comp": "__comp---theme-debug-routes-946-699",
    "__context": {
      "plugin": "plugin---gitlab-ci-project-docusaurus-debugcf-8-410"
    }
  },
  "/gitlab-ci-project/blog-bb2": {
    "__comp": "__comp---theme-blog-list-pagea-6-a-7ba",
    "__context": {
      "plugin": "plugin---gitlab-ci-project-blog-736-c9d"
    },
    "sidebar": "sidebar---gitlab-ci-project-blog-814-ac2",
    "items": [
      {
        "content": "content---gitlab-ci-project-blog-766-c2a"
      },
      {
        "content": "content---gitlab-ci-project-blogf-4-f-0cc"
      },
      {
        "content": "content---gitlab-ci-project-blog-871-411"
      },
      {
        "content": "content---gitlab-ci-project-blog-925-f41"
      }
    ],
    "metadata": "metadata---gitlab-ci-project-blog-7-ae-698"
  },
  "/gitlab-ci-project/blog/archive-f5a": {
    "__comp": "__comp---theme-blog-archive-page-9-e-4-1d8",
    "__context": {
      "plugin": "plugin---gitlab-ci-project-blog-736-c9d"
    },
    "archive": "archive---gitlab-ci-project-blog-archive-148-bb4"
  },
  "/gitlab-ci-project/blog/first-blog-post-664": {
    "__comp": "__comp---theme-blog-post-pageccc-cab",
    "__context": {
      "plugin": "plugin---gitlab-ci-project-blog-736-c9d"
    },
    "sidebar": "sidebar---gitlab-ci-project-blog-814-ac2",
    "content": "content---gitlab-ci-project-blog-first-blog-poste-27-25b"
  },
  "/gitlab-ci-project/blog/long-blog-post-6b4": {
    "__comp": "__comp---theme-blog-post-pageccc-cab",
    "__context": {
      "plugin": "plugin---gitlab-ci-project-blog-736-c9d"
    },
    "sidebar": "sidebar---gitlab-ci-project-blog-814-ac2",
    "content": "content---gitlab-ci-project-blog-long-blog-post-736-56f"
  },
  "/gitlab-ci-project/blog/mdx-blog-post-f2c": {
    "__comp": "__comp---theme-blog-post-pageccc-cab",
    "__context": {
      "plugin": "plugin---gitlab-ci-project-blog-736-c9d"
    },
    "sidebar": "sidebar---gitlab-ci-project-blog-814-ac2",
    "content": "content---gitlab-ci-project-blog-mdx-blog-post-593-1c9"
  },
  "/gitlab-ci-project/blog/tags-acc": {
    "__comp": "__comp---theme-blog-tags-list-page-01-a-d0b",
    "__context": {
      "plugin": "plugin---gitlab-ci-project-blog-736-c9d"
    },
    "sidebar": "sidebar---gitlab-ci-project-blog-814-ac2",
    "tags": "tags---gitlab-ci-project-blog-tags-761-874"
  },
  "/gitlab-ci-project/blog/tags/docusaurus-cbb": {
    "__comp": "__comp---theme-blog-tags-posts-page-687-b6c",
    "__context": {
      "plugin": "plugin---gitlab-ci-project-blog-736-c9d"
    },
    "sidebar": "sidebar---gitlab-ci-project-blog-814-ac2",
    "items": [
      {
        "content": "content---gitlab-ci-project-blog-766-c2a"
      },
      {
        "content": "content---gitlab-ci-project-blogf-4-f-0cc"
      },
      {
        "content": "content---gitlab-ci-project-blog-871-411"
      },
      {
        "content": "content---gitlab-ci-project-blog-925-f41"
      }
    ],
    "tag": "tag---gitlab-ci-project-blog-tags-docusaurusc-07-06f",
    "listMetadata": "listMetadata---gitlab-ci-project-blog-tags-docusaurus-578-371"
  },
  "/gitlab-ci-project/blog/tags/facebook-969": {
    "__comp": "__comp---theme-blog-tags-posts-page-687-b6c",
    "__context": {
      "plugin": "plugin---gitlab-ci-project-blog-736-c9d"
    },
    "sidebar": "sidebar---gitlab-ci-project-blog-814-ac2",
    "items": [
      {
        "content": "content---gitlab-ci-project-blog-766-c2a"
      }
    ],
    "tag": "tag---gitlab-ci-project-blog-tags-facebook-913-e5f",
    "listMetadata": "listMetadata---gitlab-ci-project-blog-tags-facebook-23-a-b80"
  },
  "/gitlab-ci-project/blog/tags/hello-fad": {
    "__comp": "__comp---theme-blog-tags-posts-page-687-b6c",
    "__context": {
      "plugin": "plugin---gitlab-ci-project-blog-736-c9d"
    },
    "sidebar": "sidebar---gitlab-ci-project-blog-814-ac2",
    "items": [
      {
        "content": "content---gitlab-ci-project-blog-766-c2a"
      },
      {
        "content": "content---gitlab-ci-project-blog-871-411"
      }
    ],
    "tag": "tag---gitlab-ci-project-blog-tags-hello-1-ab-45e",
    "listMetadata": "listMetadata---gitlab-ci-project-blog-tags-hello-2-d-3-a0b"
  },
  "/gitlab-ci-project/blog/tags/hola-2dd": {
    "__comp": "__comp---theme-blog-tags-posts-page-687-b6c",
    "__context": {
      "plugin": "plugin---gitlab-ci-project-blog-736-c9d"
    },
    "sidebar": "sidebar---gitlab-ci-project-blog-814-ac2",
    "items": [
      {
        "content": "content---gitlab-ci-project-blog-925-f41"
      }
    ],
    "tag": "tag---gitlab-ci-project-blog-tags-hola-5-d-9-896",
    "listMetadata": "listMetadata---gitlab-ci-project-blog-tags-hola-075-d26"
  },
  "/gitlab-ci-project/blog/welcome-c7c": {
    "__comp": "__comp---theme-blog-post-pageccc-cab",
    "__context": {
      "plugin": "plugin---gitlab-ci-project-blog-736-c9d"
    },
    "sidebar": "sidebar---gitlab-ci-project-blog-814-ac2",
    "content": "content---gitlab-ci-project-blog-welcomed-9-f-1e2"
  },
  "/gitlab-ci-project/markdown-page-cda": {
    "__comp": "__comp---theme-mdx-page-1-f-3-b90",
    "__context": {
      "plugin": "plugin---gitlab-ci-project-markdown-pageb-3-c-ab3"
    },
    "content": "content---gitlab-ci-project-markdown-page-393-73c"
  },
  "/gitlab-ci-project/my-markdown-page-6a0": {
    "__comp": "__comp---theme-mdx-page-1-f-3-b90",
    "__context": {
      "plugin": "plugin---gitlab-ci-project-markdown-pageb-3-c-ab3"
    },
    "content": "content---gitlab-ci-project-my-markdown-page-031-5c2"
  },
  "/gitlab-ci-project/docs-38d": {
    "__comp": "__comp---theme-docs-root-5-e-9-0b6",
    "__context": {
      "plugin": "plugin---gitlab-ci-project-docs-92-d-b6f"
    }
  },
  "/gitlab-ci-project/docs-9bf": {
    "__comp": "__comp---theme-doc-version-roota-7-b-5de",
    "version": "version---gitlab-ci-project-docs-935-8b2"
  },
  "/gitlab-ci-project/docs-5ec": {
    "__comp": "__comp---theme-doc-roota-94-67a"
  },
  "/gitlab-ci-project/docs/category/tutorial---basics-aec": {
    "__comp": "__comp---theme-doc-category-generated-index-page-14-e-640",
    "categoryGeneratedIndex": "categoryGeneratedIndex---gitlab-ci-project-docs-category-tutorial-basicscd-1-b9d"
  },
  "/gitlab-ci-project/docs/category/tutorial---extras-2c4": {
    "__comp": "__comp---theme-doc-category-generated-index-page-14-e-640",
    "categoryGeneratedIndex": "categoryGeneratedIndex---gitlab-ci-project-docs-category-tutorial-extrased-3-43b"
  },
  "/gitlab-ci-project/docs/intro-794": {
    "__comp": "__comp---theme-doc-item-178-a40",
    "content": "content---gitlab-ci-project-docs-intro-0-e-3-d32"
  },
  "/gitlab-ci-project/docs/tutorial-basics/congratulations-645": {
    "__comp": "__comp---theme-doc-item-178-a40",
    "content": "content---gitlab-ci-project-docs-tutorial-basics-congratulations-822-19c"
  },
  "/gitlab-ci-project/docs/tutorial-basics/create-a-blog-post-00f": {
    "__comp": "__comp---theme-doc-item-178-a40",
    "content": "content---gitlab-ci-project-docs-tutorial-basics-create-a-blog-post-533-b4c"
  },
  "/gitlab-ci-project/docs/tutorial-basics/create-a-document-be9": {
    "__comp": "__comp---theme-doc-item-178-a40",
    "content": "content---gitlab-ci-project-docs-tutorial-basics-create-a-document-1-e-4-354"
  },
  "/gitlab-ci-project/docs/tutorial-basics/create-a-page-3fb": {
    "__comp": "__comp---theme-doc-item-178-a40",
    "content": "content---gitlab-ci-project-docs-tutorial-basics-create-a-page-5-c-8-19a"
  },
  "/gitlab-ci-project/docs/tutorial-basics/deploy-your-site-610": {
    "__comp": "__comp---theme-doc-item-178-a40",
    "content": "content---gitlab-ci-project-docs-tutorial-basics-deploy-your-sitef-55-749"
  },
  "/gitlab-ci-project/docs/tutorial-basics/markdown-features-d0f": {
    "__comp": "__comp---theme-doc-item-178-a40",
    "content": "content---gitlab-ci-project-docs-tutorial-basics-markdown-features-18-c-d1d"
  },
  "/gitlab-ci-project/docs/tutorial-extras/manage-docs-versions-acc": {
    "__comp": "__comp---theme-doc-item-178-a40",
    "content": "content---gitlab-ci-project-docs-tutorial-extras-manage-docs-versionsdff-e6c"
  },
  "/gitlab-ci-project/docs/tutorial-extras/translate-your-site-f87": {
    "__comp": "__comp---theme-doc-item-178-a40",
    "content": "content---gitlab-ci-project-docs-tutorial-extras-translate-your-sitee-44-428"
  },
  "/gitlab-ci-project/-f2f": {
    "__comp": "__comp---site-src-pages-index-jsc-4-f-f99",
    "__context": {
      "plugin": "plugin---gitlab-ci-project-markdown-pageb-3-c-ab3"
    },
    "config": "config---gitlab-ci-project-5-e-9-a5c"
  }
}